Latitude,Longitude
632693.518889,7509717.102778
631713.428824,7507511.809706
632691.492778,7509103.575000
633115.050000,7509354.379286
632483.685814,7508940.920000
632289.482414,7508605.408621
633288.368000,7510388.444667
633081.815455,7509816.830909
632684.590000,7509419.750000
632632.002250,7508625.713750
632907.277000,7509274.551000
633250.147222,7509901.302222
632637.928667,7509962.718667
633227.172308,7509435.930769
632275.714493,7508144.128406
632926.119000,7509984.151000
632008.322500,7508448.317500
632747.467500,7508543.010000
632576.196667,7509200.756667
633323.161905,7510150.169524
