Latitude,Longitude
633250.388125,7509882.203750
632208.108776,7508087.584898
632512.290000,7508871.180000
633186.130000,7509774.238000
632244.545000,7508706.870000
632706.038235,7509724.929412
632737.252500,7508996.472500
632656.025000,7509395.180000
631717.862245,7507650.633878
632919.294000,7509334.376000
633103.817333,7509361.380667
633194.295000,7510409.407500
632678.418571,7509134.175714
632781.503333,7508625.126111
632413.994375,7508974.150625
632313.133684,7508552.007895
631706.527222,7507160.038333
632628.101250,7509939.051875
633045.098571,7509646.562143
633271.315556,7510114.833889
633045.715000,7509121.232000
632421.413438,7508360.849375
632576.196667,7509200.756667
633430.860000,7510312.178333
632008.322500,7508448.317500
632695.206111,7508784.908889
632450.342000,7509322.088000
632895.260000,7509214.726000
632926.119000,7509984.151000
632770.285000,7509493.460000
