45217075,45537158.0,45537403.0,45641931.0,45537142.0,45537156.0,45217095.0,45537159.0,45537415.0,45537154.0,45538112.0,45537416.0,45642728.0,45217076.0,45216535.0,45643324.0,45217096.0,45537138.0,45537137.0,45537418.0,45216534.0,45643006.0,45217063.0,45217061.0,45643007.0,45537419.0,,,,,,,,,,,,,,,,,,,,,,,,,,,,,,,,,,,,,,,,,
45176462,45176463.0,45176461.0,45176464.0,45176460.0,45176465.0,45176466.0,45176467.0,45235357.0,45176471.0,45176469.0,45455273.0,45176458.0,45551355.0,45180174.0,45176470.0,45176457.0,45176459.0,45398198.0,45639066.0,45630483.0,,,,,,,,,,,,,,,,,,,,,,,,,,,,,,,,,,,,,,,,,,,,,,
45634371,45216495.0,45642054.0,45216505.0,45536756.0,45634476.0,45642124.0,45536722.0,45539108.0,45284557.0,45634137.0,45536778.0,45536720.0,45286895.0,45539107.0,45216504.0,45216498.0,45216503.0,45538062.0,45538065.0,45536792.0,45536761.0,45216507.0,45216477.0,45536724.0,45216506.0,45536648.0,45536791.0,45536732.0,45536725.0,45637736.0,45536713.0,45536714.0,45216501.0,45538058.0,45638974.0,45634853.0,45538047.0,45216502.0,45538066.0,45216500.0,45216499.0,45536715.0,45634245.0,45538051.0,45638973.0,45400299.0,45629298.0,45369996.0,45538048.0,,,,,,,,,,,,,,,,,
45537035,45217345.0,45537031.0,45537030.0,45537029.0,45635731.0,45642736.0,45537049.0,45636328.0,45638893.0,45537013.0,45217344.0,45537027.0,45242951.0,45538107.0,45537014.0,45537037.0,45537038.0,45537017.0,45537018.0,45217350.0,45537023.0,45537039.0,45537026.0,45537024.0,45217349.0,,,,,,,,,,,,,,,,,,,,,,,,,,,,,,,,,,,,,,,,,
45221153,45279057.0,45272564.0,45629334.0,45272565.0,45263699.0,45308578.0,45221152.0,45265399.0,45536716.0,45400297.0,45242944.0,45263700.0,45536670.0,45642390.0,45216434.0,45643968.0,45536656.0,45643969.0,45480744.0,45242945.0,45536618.0,45506496.0,45263698.0,,,,,,,,,,,,,,,,,,,,,,,,,,,,,,,,,,,,,,,,,,,
45180252,45180262.0,45180258.0,45180254.0,45180266.0,45190415.0,45180261.0,45180259.0,45180208.0,45190420.0,45180207.0,45190418.0,45180209.0,45180226.0,45180206.0,45180265.0,45180260.0,45180190.0,45180223.0,45190419.0,45180267.0,45190421.0,45180191.0,45180227.0,45180225.0,45190411.0,45180269.0,45180264.0,45190422.0,45180263.0,45180268.0,45180275.0,45180270.0,45180274.0,45629531.0,45180257.0,45180228.0,45180224.0,45180271.0,45190412.0,45180188.0,45180212.0,45180189.0,45180282.0,45216407.0,45180215.0,45180211.0,45419846.0,45224046.0,45190405.0,45180273.0,45180283.0,45180244.0,45180243.0,45180213.0,45190414.0,45180192.0,45180220.0,45180216.0,45180272.0,45180205.0,45180214.0,45538019.0,45190413.0,45180193.0,45190409.0,45180210.0
45537334,45391433.0,45538200.0,45217438.0,45385594.0,45217437.0,45638322.0,45537250.0,45537227.0,45537264.0,45537248.0,45537263.0,45537351.0,45385593.0,45537353.0,45313795.0,45537354.0,45537257.0,45217431.0,45638525.0,45537242.0,45315708.0,45642989.0,,,,,,,,,,,,,,,,,,,,,,,,,,,,,,,,,,,,,,,,,,,,
45537442,45537443.0,45538133.0,45537451.0,45217399.0,45538132.0,45217403.0,45537452.0,45217374.0,45537447.0,45217402.0,45537429.0,45537453.0,45537430.0,45217373.0,45217162.0,45537448.0,45538126.0,45217397.0,45537444.0,45217396.0,45641872.0,45217388.0,45217404.0,45217412.0,45217163.0,45217395.0,45217398.0,45219316.0,45255074.0,45217375.0,45217400.0,45217372.0,45217394.0,45538125.0,45217376.0,45217389.0,45273568.0,45217411.0,45217410.0,45538166.0,45217409.0,45217393.0,45537100.0,45411108.0,,,,,,,,,,,,,,,,,,,,,,
45538091,45536860.0,45536867.0,45538076.0,45217072.0,45538092.0,45217071.0,45536818.0,45536861.0,45538080.0,45217070.0,45642937.0,45536866.0,45536693.0,45538095.0,45536885.0,45537163.0,45536886.0,45537164.0,45536819.0,45536888.0,45217069.0,45315707.0,45536887.0,45538077.0,45217068.0,45536806.0,,,,,,,,,,,,,,,,,,,,,,,,,,,,,,,,,,,,,,,,
45177085,45180288.0,45177086.0,45177084.0,45177083.0,45273216.0,45177134.0,45177082.0,45177135.0,45177143.0,45177142.0,45177081.0,45177136.0,45177144.0,45536634.0,45216449.0,45177141.0,45640852.0,45177145.0,45177140.0,45538026.0,45216448.0,45177080.0,45638419.0,45177087.0,45637641.0,45216447.0,45177158.0,45177137.0,45177138.0,45632518.0,45237337.0,45216446.0,45177088.0,45536636.0,45216450.0,45374826.0,45177157.0,45536637.0,45180292.0,45177121.0,45216445.0,45177122.0,45180289.0,45629836.0,45536633.0,45177099.0,45177089.0,45177123.0,45642881.0,45177079.0,,,,,,,,,,,,,,,,
45536893,45639979.0,45246404.0,45538096.0,45217117.0,45217112.0,45217113.0,45217116.0,45638052.0,45536898.0,45217114.0,45536903.0,45217115.0,45643225.0,45536902.0,45536986.0,45536989.0,45641371.0,45637566.0,45536987.0,45536896.0,45536787.0,45217111.0,45217110.0,45536900.0,45536901.0,45536988.0,,,,,,,,,,,,,,,,,,,,,,,,,,,,,,,,,,,,,,,,
45537522,45538138.0,45537524.0,45538137.0,45538162.0,45537527.0,45537528.0,45538158.0,45540194.0,45538136.0,45538135.0,45537462.0,45217429.0,45630666.0,45637613.0,45217439.0,45219318.0,45217428.0,45217442.0,45538141.0,45537460.0,45537477.0,45537529.0,45537449.0,45639868.0,45629314.0,45537506.0,,,,,,,,,,,,,,,,,,,,,,,,,,,,,,,,,,,,,,,,
45216539,45222614.0,45537583.0,45539828.0,45216537.0,45537589.0,45216531.0,45216530.0,45538173.0,45537616.0,45537617.0,45217078.0,45217079.0,45537397.0,45217080.0,,,,,,,,,,,,,,,,,,,,,,,,,,,,,,,,,,,,,,,,,,,,,,,,,,,,
45242951,,,,,,,,,,,,,,,,,,,,,,,,,,,,,,,,,,,,,,,,,,,,,,,,,,,,,,,,,,,,,,,,,,
45176889,45176888.0,45176886.0,45320735.0,45320761.0,45220730.0,45176930.0,45176890.0,45629674.0,45176892.0,45301520.0,45176861.0,45176901.0,45211395.0,45176860.0,45176929.0,45176931.0,45635882.0,45176900.0,45176902.0,45551440.0,45176893.0,45176934.0,45176928.0,45238046.0,45387341.0,45635880.0,45641464.0,45635881.0,45551457.0,45282578.0,45640987.0,45176821.0,45176876.0,,,,,,,,,,,,,,,,,,,,,,,,,,,,,,,,,
45217152,45222631.0,45537549.0,45640562.0,45217153.0,45217154.0,45222628.0,45538170.0,45425938.0,45325601.0,45222629.0,45537557.0,45222630.0,45538129.0,45538175.0,45222615.0,45217155.0,45537551.0,45538171.0,45537558.0,45222633.0,45300156.0,45537544.0,45635131.0,45217161.0,45641890.0,45385592.0,45217148.0,45222625.0,45222606.0,45538192.0,45370006.0,45222627.0,45538169.0,45217160.0,45537641.0,45627267.0,45217150.0,45217151.0,45217414.0,45631121.0,45217159.0,45217310.0,45544701.0,45217156.0,,,,,,,,,,,,,,,,,,,,,,
45211407,45211418.0,45211408.0,45269140.0,45211419.0,45211409.0,45211420.0,45211417.0,45211421.0,45211410.0,45472887.0,45382589.0,45211422.0,45551419.0,45642750.0,45332034.0,45211423.0,45551413.0,45211411.0,45211415.0,45551410.0,45211405.0,45211424.0,45211414.0,45179917.0,45551443.0,45642965.0,45211426.0,,,,,,,,,,,,,,,,,,,,,,,,,,,,,,,,,,,,,,,
45237338,45177127.0,45642713.0,45177128.0,45177182.0,45640340.0,45177129.0,45177125.0,45177130.0,45177123.0,45177124.0,45392342.0,45628327.0,45180293.0,45177122.0,45177131.0,45177102.0,45177121.0,45180292.0,45239457.0,45177126.0,45638225.0,45177118.0,45401755.0,45638237.0,45177159.0,45177119.0,45374826.0,45177160.0,45237339.0,45177101.0,45177100.0,45640709.0,45177140.0,45636547.0,45177158.0,45177141.0,45177161.0,45177157.0,45177142.0,45177143.0,45629836.0,45177132.0,45177099.0,45177162.0,45177113.0,45642881.0,,,,,,,,,,,,,,,,,,,,
45536796,45636334.0,45536706.0,45538044.0,45536795.0,45538068.0,45635471.0,45536794.0,45536810.0,45432461.0,45536712.0,45536705.0,45538046.0,45638974.0,45637736.0,45536713.0,45640614.0,45536714.0,45538047.0,45217065.0,45217066.0,45536715.0,45640799.0,45638973.0,45536711.0,45419847.0,45538048.0,45536797.0,45536809.0,45538049.0,45242947.0,45536710.0,45538038.0,45369997.0,45536648.0,45536677.0,45538062.0,,,,,,,,,,,,,,,,,,,,,,,,,,,,,,
45217441,45642221.0,45217445.0,45537515.0,45638073.0,45537688.0,45219319.0,45537683.0,45537238.0,,,,,,,,,,,,,,,,,,,,,,,,,,,,,,,,,,,,,,,,,,,,,,,,,,,,,,,,,,
