818,2
819,2
810,2
811,2
812,2
813,2
814,2
349,0
816,2
817,2
591,0
590,0
593,0
592,0
595,0
198,3
597,0
596,0
599,0
598,0
196,3
191,1
193,3
192,2
529,0
826,2
108,1
109,1
102,1
103,1
100,1
101,1
106,1
107,1
104,1
105,1
39,1
38,1
905,3
33,1
32,1
31,1
30,1
37,1
36,1
35,1
34,1
641,0
640,0
643,0
642,0
645,0
644,0
647,0
646,0
649,0
648,0
854,3
855,3
856,3
857,3
850,3
851,3
852,3
853,3
858,3
859,3
99,1
98,1
91,1
90,1
93,1
92,1
95,1
94,1
97,1
96,1
815,2
559,0
558,0
554,0
557,0
556,0
551,0
550,0
553,0
552,0
1,0
618,0
619,0
612,0
613,0
610,0
611,0
616,0
617,0
614,0
615,0
133,0
132,0
131,4
130,4
137,0
136,0
135,0
134,0
24,1
25,1
26,1
27,1
20,1
21,1
22,1
23,1
28,1
29,1
829,2
828,2
371,0
824,2
827,2
372,0
821,2
820,2
823,2
822,2
1083,2
88,1
89,3
82,1
83,1
80,1
81,1
86,1
87,1
84,1
85,1
797,2
796,2
795,2
794,3
793,2
792,2
791,4
790,4
799,2
798,2
651,0
7,1
586,0
587,0
584,0
585,0
582,0
583,0
580,0
581,0
1132,1
1131,1
1130,1
588,0
589,0
1000,0
623,0
622,0
621,0
620,3
627,0
626,0
625,0
624,0
629,0
628,0
1085,2
1084,2
199,3
594,0
1081,2
1080,2
2,3
186,1
187,1
650,0
194,1
185,1
1126,0
1088,2
869,3
868,3
13,1
12,1
15,1
14,1
17,1
16,1
861,3
860,3
863,1
862,3
865,3
864,3
867,3
866,3
883,0
882,0
887,0
886,0
885,0
884,0
888,0
562,0
775,4
774,0
777,4
776,4
771,0
770,2
773,0
772,0
779,4
778,4
77,1
76,1
75,1
74,3
73,1
72,1
71,1
70,1
79,1
78,1
359,0
542,0
543,0
540,0
541,0
546,0
547,0
544,2
545,0
8,1
548,0
549,0
11,1
10,1
120,4
121,1
122,1
123,1
124,4
125,4
126,4
127,4
128,4
129,4
19,1
18,1
832,2
833,2
830,2
831,2
836,2
837,2
834,2
835,2
838,2
839,2
784,4
785,4
786,4
787,4
781,4
782,4
783,4
788,4
789,4
579,0
578,0
573,0
572,0
571,0
570,0
577,0
576,0
575,0
574,0
60,1
61,1
62,1
63,1
64,1
65,1
66,1
67,1
68,1
69,1
630,0
631,0
632,0
633,0
634,0
635,0
636,0
637,0
638,0
639,0
900,2
162,3
964,2
967,2
960,2
961,2
962,2
963,2
1100,2
1101,3
878,3
870,3
9,1
892,2
893,2
894,2
895,2
896,2
897,2
898,2
899,2
1086,3
809,2
808,2
350,0
803,2
802,2
801,2
800,2
807,2
806,2
805,2
804,2
768,2
769,0
762,0
763,0
760,0
761,0
766,0
767,2
764,0
765,0
40,1
1079,2
4,2
1094,2
1095,2
1096,2
1097,2
1090,2
1091,2
1092,2
1093,2
1098,2
1099,2
1082,2
59,3
58,1
55,1
54,1
57,1
56,1
51,1
50,1
53,1
52,1
537,0
536,0
535,0
533,0
532,0
531,0
530,0
539,0
538,0
115,2
114,0
117,4
116,4
111,3
110,3
113,0
112,3
119,4
118,4
825,2
847,3
846,2
845,2
844,2
843,2
842,2
841,2
840,2
849,3
848,3
1127,3
568,0
569,0
560,0
561,0
759,0
563,0
564,0
565,0
566,0
567,0
1089,2
605,0
604,0
607,0
606,0
601,0
600,0
603,0
602,0
609,0
608,0
959,2
958,2
48,1
49,1
46,1
47,1
44,1
45,1
42,1
43,1
957,2
41,1
1111,3
1110,3
1113,3
1112,3
5,2
