818,0
819,0
810,0
811,0
812,0
813,0
814,0
349,9
816,0
817,0
591,6
590,6
593,6
592,6
595,6
198,3
597,6
596,6
599,6
598,6
196,3
191,1
193,3
192,5
529,9
826,0
108,1
109,1
102,1
103,1
100,1
101,1
106,1
107,1
104,1
105,1
39,1
38,1
905,3
33,7
32,7
31,7
30,7
37,1
36,1
35,7
34,7
641,6
640,6
643,6
642,6
645,6
644,6
647,6
646,6
649,6
648,6
854,3
855,3
856,3
857,3
850,8
851,3
852,3
853,3
858,3
859,3
99,1
98,1
91,1
90,1
93,1
92,1
95,1
94,1
97,1
96,1
815,0
559,9
558,9
554,9
557,9
556,9
551,9
550,9
553,9
552,9
1,9
618,6
619,6
612,6
613,6
610,6
611,6
616,6
617,6
614,6
615,6
133,6
132,6
131,4
130,4
137,6
136,6
135,9
134,6
24,7
25,7
26,7
27,7
20,7
21,1
22,7
23,7
28,7
29,7
829,0
828,0
371,9
824,0
827,0
372,9
821,0
820,0
823,0
822,0
1083,2
88,1
89,3
82,1
83,1
80,1
81,1
86,1
87,1
84,1
85,1
797,0
796,0
795,0
794,8
793,0
792,0
791,4
790,4
799,0
798,0
651,6
7,7
586,9
587,9
584,9
585,9
582,9
583,9
580,6
581,6
1132,7
1131,7
1130,7
588,9
589,6
1000,9
623,6
622,6
621,6
620,8
627,6
626,6
625,6
624,6
629,6
628,6
1085,2
1084,2
199,3
594,6
1081,0
1080,0
2,3
186,1
187,1
650,6
194,7
185,7
1126,9
1088,0
869,8
868,8
13,7
12,7
15,7
14,7
17,7
16,7
861,3
860,3
863,1
862,3
865,8
864,8
867,8
866,8
883,9
882,9
887,9
886,9
885,9
884,9
888,9
562,9
775,4
774,6
777,4
776,4
771,6
770,0
773,6
772,6
779,4
778,4
77,1
76,1
75,1
74,3
73,1
72,1
71,1
70,1
79,1
78,1
359,9
542,9
543,9
540,9
541,9
546,9
547,9
544,2
545,9
8,7
548,9
549,9
11,7
10,7
120,4
121,1
122,1
123,1
124,4
125,4
126,4
127,4
128,4
129,4
19,7
18,7
832,0
833,0
830,0
831,0
836,0
837,0
834,0
835,0
838,0
839,0
784,4
785,4
786,4
787,4
781,4
782,4
783,4
788,4
789,4
579,6
578,6
573,9
572,9
571,9
570,9
577,6
576,9
575,9
574,9
60,3
61,1
62,1
63,1
64,1
65,1
66,1
67,1
68,1
69,1
630,6
631,6
632,6
633,6
634,6
635,6
636,6
637,6
638,6
639,6
900,5
162,3
964,0
967,0
960,0
961,0
962,0
963,0
1100,2
1101,3
878,3
870,8
9,7
892,5
893,5
894,5
895,5
896,5
897,5
898,5
899,5
1086,8
809,0
808,0
350,9
803,0
802,0
801,0
800,0
807,0
806,0
805,0
804,0
768,2
769,6
762,6
763,6
760,6
761,6
766,6
767,2
764,6
765,6
40,1
1079,0
4,5
1094,2
1095,2
1096,2
1097,2
1090,2
1091,2
1092,2
1093,2
1098,2
1099,2
1082,2
59,3
58,1
55,1
54,1
57,1
56,1
51,1
50,1
53,1
52,1
537,9
536,9
535,9
533,9
532,9
531,9
530,9
539,9
538,9
115,2
114,6
117,4
116,4
111,3
110,3
113,9
112,3
119,4
118,4
825,0
847,3
846,0
845,0
844,0
843,0
842,0
841,0
840,0
849,8
848,3
1127,8
568,9
569,9
560,9
561,9
759,6
563,9
564,9
565,9
566,9
567,9
1089,0
605,9
604,9
607,9
606,9
601,6
600,6
603,6
602,6
609,6
608,6
959,0
958,0
48,1
49,1
46,7
47,7
44,7
45,7
42,1
43,1
957,0
41,1
1111,3
1110,3
1113,3
1112,3
5,2
