[TITLE]

[JUNCTIONS]
 264                                 661.0000
 265                                 661.0000
 340                                 661.0000
 342                                 660.0000
 343                                 658.0000
 345                                 658.0000
 351                                 655.0000
 352                                 656.0000
 353                                 653.0000
 354                                 651.0000
 355                                 650.0000
 356                                 658.0000
 357                                 658.0000
 358                                 658.0000
 361                                 654.0000
 362                                 650.0000
 363                                 645.0000
 364                                 645.0000
 365                                 646.0000
 366                                 648.0000
 367                                 648.0000
 368                                 646.0000
 369                                 646.0000
 387                                 648.0000
 388                                 648.0000
 389                                 644.0000
 390                                 647.0000
 391                                 643.0000
 392                                 646.0000
 393                                 649.0000
 394                                 652.0000
 395                                 646.0000
 396                                 645.0000
 397                                 644.0000
 398                                 644.0000
 399                                 639.0000
 400                                 639.0000
 401                                 636.0000
 402                                 635.0000
 403                                 641.0000
 405                                 639.0000
 406                                 639.0000
 407                                 639.0000
 408                                 639.0000
 409                                 643.0000
 410                                 644.0000
 411                                 644.0000
 412                                 646.0000
 413                                 641.0000
 414                                 646.0000
 415                                 642.0000
 416                                 643.0000
 417                                 637.0000
 418                                 646.0000
 419                                 643.0000
 420                                 641.0000
 421                                 639.0000
 422                                 639.0000
 423                                 639.0000
 424                                 639.0000
 425                                 641.0000
 426                                 641.0000
 427                                 642.0000
 428                                 634.0000
 429                                 633.0000
 430                                 632.0000
 431                                 630.0000
 432                                 634.0000
 433                                 631.0000
 434                                 634.0000
 435                                 633.0000
 436                                 639.0000
 437                                 639.0000
 438                                 642.0000
 439                                 644.0000
 440                                 644.0000
 441                                 649.0000
 442                                 649.0000
 443                                 651.0000
 444                                 652.0000
 445                                 652.0000
 446                                 656.0000
 447                                 657.0000
 448                                 658.0000
 449                                 648.0000
 450                                 649.0000
 453                                 646.0000
 454                                 649.0000
 404                                 652.0000
 456                                 632.0000
 457                                 644.0000
 458                                 636.0000
 459                                 644.0000
 460                                 643.0000
 461                                 638.0000
 462                                 630.0000
 463                                 637.0000
 464                                 630.0000
 465                                 625.0000
 466                                 625.0000
 467                                 646.0000
 468                                 646.0000
 469                                 648.0000
 470                                 645.0000
 471                                 647.0000
 472                                 648.0000
 473                                 644.0000
 474                                 642.0000
 475                                 646.0000
 476                                 645.0000
 337                                 662.0000
 386                                 638.0000
 451                                 662.0000
 555                                 661.0000
 739                                 658.0000
 946                                 659.0000
 947                                 654.0000
 1058                                661.0000
 1073                                661.0000
 1077                                660.0000
 1078                                659.0000
 1152                                656.0000
 168                                 650.0000
 2                                   628.0000
 3                                   649.0000
 4                                   662.0000
 5                                   657.0000

[RESERVOIRS]
 1                                   700.0000 

[TANKS]

[PIPES]
 443                             343                             345                                   8.2500      50.0000     146.8791       6.0568 
 444                             340                             342                                  87.6500      50.0000     146.8791       6.0568 
 445                             342                             343                                  90.4600      50.0000     146.8791       6.0568 
 446                             342                             352                                 164.0500      50.0000     146.8791       6.0568 
 447                             345                             353                                 153.2900      50.0000     146.8791       6.0568 
 448                             356                             352                                  96.4800      50.0000     146.8791       6.0568 
 449                             352                             353                                  98.0300      50.0000     146.8791       6.0568 
 450                             340                             265                                   9.7500      50.0000     146.8791       6.0568 
 451                             265                             264                                   7.6100     100.0000     146.8791       6.0568 
 452                             264                             356                                 165.9200     100.0000     146.8791       6.0568 
 470                             345                             351                                 104.3600      50.0000     146.8791       6.0568 
 471                             351                             354                                  96.8100      50.0000     146.8791       6.0568 
 472                             354                             387                                  84.4100      50.0000     146.8791       6.0568 
 473                             354                             390                                 134.2000      50.0000     146.8791       6.0568 
 474                             388                             389                                 103.5600      50.0000     146.8791       6.0568 
 475                             389                             390                                  98.5400      50.0000     146.8791       6.0568 
 476                             390                             355                                  98.1700      50.0000     146.8791       6.0568 
 477                             355                             353                                 103.9600      50.0000     146.8791       6.0568 
 478                             351                             355                                 140.7500      50.0000     146.8791       6.0568 
 479                             356                             361                                 160.1800     100.0000     146.8791       6.0568 
 480                             361                             404                                 150.0200     100.0000     139.7615      13.4325 
 481                             404                             362                                  23.2500     100.0000     139.7615      13.4325 
 482                             362                             454                                 113.8000     100.0000     139.7615      13.4325 
 483                             362                             3                                    43.4600     100.0000     139.7615      13.4325 
 484                             449                             453                                  92.4700     100.0000     146.8377       3.6223 
 485                             454                             367                                  88.4600     100.0000     139.7615      13.4325 
 488                             454                             412                                  97.1300      75.0000     139.7615      13.4325 
 489                             412                             410                                  98.6600      75.0000     146.8377       3.6223 
 490                             439                             438                                 100.0100      75.0000     146.8377       3.6223 
 491                             438                             437                                  99.2600      75.0000     146.8377       3.6223 
 492                             440                             439                                   3.6000      75.0000     146.8377       3.6223 
 493                             418                             440                                  99.4200      75.0000      91.1969       0.9519 
 494                             367                             418                                  98.8300     100.0000      91.1969       0.9519 
 495                             418                             368                                  63.5300     100.0000      91.1969       0.9519 
 496                             368                             363                                  37.6600      50.0000      91.1969       0.9519 
 497                             363                             364                                 124.4400     100.0000      91.1969       0.9519 
 498                             364                             365                                 160.8000      50.0000      91.1969       0.9519 
 499                             365                             366                                 149.0500     100.0000      91.1969       0.9519 
 501                             404                             444                                  11.0700      50.0000     139.7615      13.4325 
 502                             444                             445                                  48.1800      50.0000     139.7615      13.4325 
 503                             444                             446                                 159.1200      50.0000     139.7615      13.4325 
 504                             445                             447                                 159.5200      50.0000     139.7615      13.4325 
 505                             446                             447                                  49.7800      50.0000     139.7615      13.4325 
 506                             446                             357                                 138.9100      50.0000     139.7615      13.4325 
 507                             447                             358                                 135.5400      50.0000     139.7615      13.4325 
 508                             444                             441                                 138.1800      50.0000     139.7615      13.4325 
 509                             445                             442                                 138.7100      50.0000     139.7615      13.4325 
 510                             441                             442                                  47.7100      50.0000     139.7615      13.4325 
 511                             442                             443                                  39.7000      50.0000     139.7615      13.4325 
 512                             443                             448                                 406.1500      50.0000     139.7615      13.4325 
 513                             361                             394                                  97.4100      50.0000     146.8791       6.0568 
 514                             352                             394                                 158.7000      50.0000     146.8791       6.0568 
 515                             353                             393                                 160.3500      50.0000     146.8791       6.0568 
 518                             450                             393                                   6.7200      50.0000     146.8791       6.0568 
 519                             393                             392                                 102.3500      50.0000     146.8791       6.0568 
 520                             394                             449                                 162.4300      50.0000     139.7615      13.4325 
 523                             355                             392                                 161.1600      50.0000     146.8791       6.0568 
 524                             390                             391                                 163.3200      50.0000     146.8791       6.0568 
 525                             392                             391                                  99.5100      50.0000     146.8791       6.0568 
 526                             392                             396                                  63.2000      50.0000     146.8377       3.6223 
 527                             396                             397                                  45.7700      50.0000     146.8377       3.6223 
 528                             396                             398                                  80.5900      50.0000     146.8377       3.6223 
 529                             395                             398                                 102.3200      75.0000     146.8377       3.6223 
 530                             398                             399                                  99.6800     100.0000     146.8377       3.6223 
 531                             399                             400                                  37.3500     100.0000     146.8377       3.6223 
 532                             399                             401                                 110.2400      50.0000     146.8377       3.6223 
 533                             398                             413                                 133.0600      50.0000     146.8377       3.6223 
 534                             395                             410                                 127.8500      50.0000     146.8377       3.6223 
 535                             449                             412                                 122.0800      50.0000     139.7615      13.4325 
 536                             410                             413                                 101.6000      75.0000     146.8377       3.6223 
 537                             410                             409                                  84.9600      50.0000     146.8377       3.6223 
 538                             413                             408                                 109.0800      50.0000     146.8377       3.6223 
 539                             403                             405                                 106.6700      50.0000     146.8377       3.6223 
 540                             408                             415                                  61.7800      50.0000     146.8377       3.6223 
 541                             405                             417                                  56.4400      50.0000     146.8377       3.6223 
 542                             434                             402                                  97.9200      50.0000     146.8377       3.6223 
 543                             434                             435                                  55.4000      50.0000     146.8377       3.6223 
 544                             435                             456                                  54.8300      50.0000     146.8377       3.6223 
 545                             434                             432                                  97.5400      50.0000     146.8377       3.6223 
 546                             437                             436                                  27.9400      50.0000     146.8377       3.6223 
 547                             408                             407                                  25.6900      50.0000     146.8377       3.6223 
 548                             405                             406                                  48.8200      50.0000     146.8377       3.6223 
 573                             437                             432                                  98.3700      50.0000     146.8377       3.6223 
 574                             432                             433                                  88.0000      50.0000     146.8377       3.6223 
 575                             432                             428                                  96.0600      50.0000      64.4074       5.1720 
 576                             412                             414                                  94.4000      50.0000     139.7615      13.4325 
 577                             367                             414                                  97.0100      50.0000     139.7615      13.4325 
 578                             414                             440                                  98.9900      50.0000     146.8377       3.6223 
 579                             414                             411                                  67.0200      50.0000     139.7615      13.4325 
 580                             438                             416                                  50.2100      50.0000     146.8377       3.6223 
 581                             439                             457                                  82.3200      50.0000      91.1969       0.9519 
 582                             363                             459                                  92.6500      50.0000      91.1969       0.9519 
 583                             368                             369                                  11.9500      50.0000      91.1969       0.9519 
 584                             369                             467                                  42.5200      50.0000      91.1969       0.9519 
 585                             467                             469                                  98.8500      50.0000      91.1969       0.9519 
 586                             467                             468                                  19.4400      50.0000      91.1969       0.9519 
 587                             369                             470                                 144.6600      50.0000      91.1969       0.9519 
 588                             470                             471                                 105.9900      50.0000      91.1969       0.9519 
 589                             468                             471                                 228.0900      50.0000      91.1969       0.9519 
 590                             459                             460                                  29.1700      50.0000      64.4074       5.1720 
 591                             459                             426                                 101.8700      50.0000      64.4074       5.1720 
 592                             426                             427                                  48.3800      50.0000      64.4074       5.1720 
 593                             426                             425                                  11.6300      50.0000      64.4074       5.1720 
 594                             425                             423                                 114.2900      50.0000      64.4074       5.1720 
 595                             425                             428                                 189.9400      50.0000      64.4074       5.1720 
 597                             423                             422                                   8.1800      50.0000      64.4074       5.1720 
 598                             422                             424                                  26.3500      50.0000      64.4074       5.1720 
 599                             422                             421                                   7.1700      50.0000      64.4074       5.1720 
 600                             428                             429                                  19.3300      50.0000      64.4074       5.1720 
 601                             428                             462                                 119.4100      50.0000      64.4074       5.1720 
 602                             458                             462                                  97.6000      50.0000      64.4074       5.1720 
 603                             462                             2                                    52.2000      50.0000      64.4074       5.1720 
 604                             465                             431                                 116.5500      50.0000      64.4074       5.1720 
 605                             431                             430                                  68.6900      50.0000      64.4074       5.1720 
 606                             465                             466                                  55.0300      50.0000      64.4074       5.1720 
 607                             462                             464                                 141.5200      50.0000      64.4074       5.1720 
 608                             458                             463                                 163.4000      50.0000      64.4074       5.1720 
 609                             463                             464                                 103.3900      50.0000      64.4074       5.1720 
 610                             421                             420                                  89.7300      50.0000      64.4074       5.1720 
 611                             421                             461                                  97.8300      50.0000      64.4074       5.1720 
 612                             471                             472                                  47.4100      50.0000      91.1969       0.9519 
 613                             365                             473                                 104.6400      50.0000      91.1969       0.9519 
 614                             473                             474                                  97.7100      50.0000      91.1969       0.9519 
 615                             473                             475                                 181.0800      50.0000      91.1969       0.9519 
 616                             474                             476                                 208.7400      50.0000      91.1969       0.9519 
 1418                            405                             408                                   6.0100      50.0000     146.8377       3.6223 
 44                              337                             264                                  26.9600     200.0000     146.8791       6.0568 
 426                             364                             419                                  65.6400      50.0000      91.1969       0.9519 
 596                             437                             386                                  96.1500      50.0000      64.4074       5.1720 
 802                             386                             458                                 118.8100      50.0000      64.4074       5.1720 
 803                             394                             450                                  91.8200      50.0000     146.8791       6.0568 
 804                             343                             739                                  17.6200      50.0000     146.8791       6.0568 
 840                             739                             946                                  71.1400      50.0000      77.8574       6.8375 
 852                             340                             451                                  94.8900      50.0000      77.8574       6.8375 
 854                             451                             555                                  43.2400      50.0000      77.8574       6.8375 
 916                             555                             739                                 116.5400      50.0000      77.8574       6.8375 
 989                             555                             1058                                 71.8300      50.0000      77.8574       6.8375 
 1002                            1058                            946                                 116.3300      50.0000      77.8574       6.8375 
 1085                            946                             1152                                 58.2600      50.0000      77.8574       6.8375 
 1157                            1152                            947                                  47.4800      50.0000      77.8574       6.8375 
 1194                            1058                            1073                                 47.4800      50.0000      77.8574       6.8375 
 1197                            1073                            1077                                 38.5900      50.0000      77.8574       6.8375 
 1201                            1077                            1078                                103.5500      50.0000      77.8574       6.8375 
 292                             453                             395                                   7.0500      50.0000     146.8377       3.6223 
 294                             453                             450                                 151.5300      50.0000     146.8377       3.6223 
 185                             366                             168                                 269.5800     100.0000      91.1969       0.9519 
 3                               3                               449                                  52.9900     100.0000     139.7615      13.4325 
 4                               2                               465                                  50.4000      50.0000      64.4074       5.1720 
 2                               1                               4                                     2.0000     200.0000     146.8791       6.0568 
 1                               5                               1152                                 53.5700      12.0000      77.8574       6.8375 

[PUMPS]

[VALVES]
 VRPAUREA                        4                               337                                 200.0000   PRV      18.0000       0.0000

[DEMANDS]
 264                                   0.060000    1
 265                                   0.001000    1
 340                                   0.080000    1
 342                                   0.160000    1
 343                                   0.001000    1
 345                                   0.001000    1
 351                                   0.001000    1
 352                                   0.180000    1
 353                                   0.160000    1
 354                                   0.001000    1
 355                                   0.146667    1
 356                                   0.060000    1
 357                                   0.113333    1
 358                                   0.001000    1
 361                                   0.146667    1
 362                                   0.193333    1
 363                                   0.086667    1
 364                                   0.253333    1
 365                                   0.086667    1
 366                                   0.006667    1
 367                                   0.126667    1
 368                                   0.001000    1
 369                                   0.001000    1
 387                                   0.001000    1
 388                                   0.001000    1
 389                                   0.066667    1
 390                                   0.160000    1
 391                                   0.086667    1
 392                                   0.173333    1
 393                                   0.213333    1
 394                                   0.193333    1
 395                                   0.213333    1
 396                                   0.001000    1
 397                                   0.001000    1
 398                                   0.200000    1
 399                                   0.001000    1
 400                                   0.001000    1
 401                                   0.026667    1
 402                                   0.006667    1
 403                                   0.160000    1
 405                                   0.073333    1
 406                                   0.073333    1
 407                                   0.180000    1
 408                                   0.001000    1
 409                                   0.106667    1
 410                                   0.186667    1
 411                                   0.001000    1
 412                                   0.160000    1
 413                                   0.001000    1
 414                                   0.100000    1
 415                                   0.120000    1
 416                                   0.180000    1
 417                                   0.001000    1
 418                                   0.126667    1
 419                                   0.001000    1
 420                                   0.001000    1
 421                                   0.001000    1
 422                                   0.001000    1
 423                                   0.001000    1
 424                                   0.160000    1
 425                                   0.001000    1
 426                                   0.120000    1
 427                                   0.120000    1
 428                                   0.100000    1
 429                                   0.001000    1
 430                                   0.001000    1
 431                                   0.001000    1
 432                                   0.060000    1
 433                                   0.020000    1
 434                                   0.001000    1
 435                                   0.001000    1
 436                                   0.073333    1
 437                                   0.060000    1
 438                                   0.173333    1
 439                                   0.120000    1
 440                                   0.001000    1
 441                                   0.001000    1
 442                                   0.173333    1
 443                                   0.266667    1
 444                                   0.001000    1
 445                                   0.173333    1
 446                                   0.001000    1
 447                                   0.113333    1
 448                                   0.220000    1
 449                                   0.166667    1
 450                                   0.001000    1
 453                                   0.001000    1
 454                                   0.106667    1
 404                                   0.001000    1
 456                                   0.001000    1
 457                                   0.133333    1
 458                                   0.146667    1
 459                                   0.001000    1
 460                                   0.001000    1
 461                                   0.206667    1
 462                                   0.106667    1
 463                                   0.100000    1
 464                                   0.046667    1
 465                                   0.086667    1
 466                                   0.001000    1
 467                                   0.133333    1
 468                                   0.053333    1
 469                                   0.001000    1
 470                                   0.226667    1
 471                                   0.160000    1
 472                                   0.020000    1
 473                                   0.001000    1
 474                                   0.001000    1
 475                                   0.086667    1
 476                                   0.086667    1
 337                                   0.001000    1
 386                                   0.140000    1
 451                                   0.020000    1
 555                                   0.126667    1
 739                                   0.080000    1
 946                                   0.001000    1
 947                                   0.026667    1
 1058                                  0.146667    1
 1073                                  0.001000    1
 1077                                  0.001000    1
 1078                                  0.001000    1
 1152                                  0.026667    1
 168                                   0.006667    1
 2                                     0.001000    1
 3                                     0.001000    1
 4                                     0.001000    1
 5                                     0.026667    1

[EMITTERS]
 264                                   0.002426
 265                                   0.002426
 340                                   0.002426
 342                                   0.002426
 343                                   0.002426
 345                                   0.002426
 351                                   0.002426
 352                                   0.002426
 353                                   0.002426
 354                                   0.002426
 355                                   0.002426
 356                                   0.002426
 357                                   0.000717
 358                                   0.000717
 361                                   0.002426
 362                                   0.000717
 363                                   0.005121
 364                                   0.005121
 365                                   0.005121
 366                                   0.005121
 367                                   0.000717
 368                                   0.005121
 369                                   0.005121
 387                                   0.002426
 388                                   0.002426
 389                                   0.002426
 390                                   0.002426
 391                                   0.002426
 392                                   0.002426
 393                                   0.002426
 394                                   0.002426
 395                                   0.008554
 396                                   0.008554
 397                                   0.008554
 398                                   0.008554
 399                                   0.008554
 400                                   0.008554
 401                                   0.008554
 402                                   0.008554
 403                                   0.008554
 405                                   0.008554
 406                                   0.008554
 407                                   0.008554
 408                                   0.008554
 409                                   0.008554
 410                                   0.008554
 411                                   0.000717
 412                                   0.000717
 413                                   0.008554
 414                                   0.000717
 415                                   0.008554
 416                                   0.008554
 417                                   0.008554
 418                                   0.005121
 419                                   0.005121
 420                                   0.016778
 421                                   0.016778
 422                                   0.016778
 423                                   0.016778
 424                                   0.016778
 425                                   0.016778
 426                                   0.016778
 427                                   0.016778
 428                                   0.016778
 429                                   0.016778
 430                                   0.016778
 431                                   0.016778
 432                                   0.008554
 433                                   0.008554
 434                                   0.008554
 435                                   0.008554
 436                                   0.008554
 437                                   0.008554
 438                                   0.008554
 439                                   0.008554
 440                                   0.008554
 441                                   0.000717
 442                                   0.000717
 443                                   0.000717
 444                                   0.000717
 445                                   0.000717
 446                                   0.000717
 447                                   0.000717
 448                                   0.000717
 449                                   0.000717
 450                                   0.002426
 453                                   0.008554
 454                                   0.000717
 404                                   0.000717
 456                                   0.008554
 457                                   0.016778
 458                                   0.016778
 459                                   0.016778
 460                                   0.016778
 461                                   0.016778
 462                                   0.016778
 463                                   0.016778
 464                                   0.016778
 465                                   0.016778
 466                                   0.016778
 467                                   0.005121
 468                                   0.005121
 469                                   0.005121
 470                                   0.005121
 471                                   0.005121
 472                                   0.005121
 473                                   0.005121
 474                                   0.005121
 475                                   0.005121
 476                                   0.005121
 337                                   0.002426
 386                                   0.016778
 451                                   0.091287
 555                                   0.091287
 739                                   0.002426
 946                                   0.091287
 947                                   0.091287
 1058                                  0.091287
 1073                                  0.091287
 1077                                  0.091287
 1078                                  0.091287
 1152                                  0.091287
 168                                   0.005121
 2                                     0.016778
 3                                     0.000717
 4                                     0.002426
 5                                     0.091287

[STATUS]

[PATTERNS]
 1                                     0.7880       0.7640       0.7380       0.7280       0.7500       0.7840
 1                                     0.9310       1.0020       1.0610       1.1310       1.1830       1.2080
 1                                     1.1990       1.1720       1.1500       1.0210       1.0460       1.1600
 1                                     1.1620       1.1280       1.0570       0.9950       0.9500       0.8920

[CURVES]
 1                                    42.0000      40.0000
 2                                    88.0000      49.0000

[CONTROLS]
 LINK VRPAUREA 18.6400 AT TIME 0.0000 HOURS
 LINK VRPAUREA 18.9600 AT TIME 0.5000 HOURS
 LINK VRPAUREA 19.2300 AT TIME 1.0000 HOURS
 LINK VRPAUREA 19.4200 AT TIME 1.5000 HOURS
 LINK VRPAUREA 19.1000 AT TIME 2.0000 HOURS
 LINK VRPAUREA 18.2500 AT TIME 2.5000 HOURS
 LINK VRPAUREA 17.9000 AT TIME 3.0000 HOURS
 LINK VRPAUREA 18.7500 AT TIME 3.5000 HOURS
 LINK VRPAUREA 19.4000 AT TIME 4.0000 HOURS
 LINK VRPAUREA 19.7300 AT TIME 4.5000 HOURS
 LINK VRPAUREA 19.6100 AT TIME 5.0000 HOURS
 LINK VRPAUREA 19.1900 AT TIME 5.5000 HOURS
 LINK VRPAUREA 18.0100 AT TIME 6.0000 HOURS
 LINK VRPAUREA 16.8300 AT TIME 6.5000 HOURS
 LINK VRPAUREA 15.8400 AT TIME 7.0000 HOURS
 LINK VRPAUREA 14.5500 AT TIME 7.5000 HOURS
 LINK VRPAUREA 13.4100 AT TIME 8.0000 HOURS
 LINK VRPAUREA 12.6000 AT TIME 8.5000 HOURS
 LINK VRPAUREA 12.3200 AT TIME 9.0000 HOURS
 LINK VRPAUREA 11.8500 AT TIME 9.5000 HOURS
 LINK VRPAUREA 11.6000 AT TIME 10.0000 HOURS
 LINK VRPAUREA 11.5900 AT TIME 10.5000 HOURS
 LINK VRPAUREA 11.4600 AT TIME 11.0000 HOURS
 LINK VRPAUREA 11.5300 AT TIME 11.5000 HOURS
 LINK VRPAUREA 11.7700 AT TIME 12.0000 HOURS
 LINK VRPAUREA 11.8900 AT TIME 12.5000 HOURS
 LINK VRPAUREA 11.9500 AT TIME 13.0000 HOURS
 LINK VRPAUREA 11.8200 AT TIME 13.5000 HOURS
 LINK VRPAUREA 12.1400 AT TIME 14.0000 HOURS
 LINK VRPAUREA 12.3500 AT TIME 14.5000 HOURS
 LINK VRPAUREA 12.8400 AT TIME 15.0000 HOURS
 LINK VRPAUREA 13.1900 AT TIME 15.5000 HOURS
 LINK VRPAUREA 13.0000 AT TIME 16.0000 HOURS
 LINK VRPAUREA 12.9300 AT TIME 16.5000 HOURS
 LINK VRPAUREA 13.1600 AT TIME 17.0000 HOURS
 LINK VRPAUREA 13.0800 AT TIME 17.5000 HOURS
 LINK VRPAUREA 12.9100 AT TIME 18.0000 HOURS
 LINK VRPAUREA 13.0900 AT TIME 18.5000 HOURS
 LINK VRPAUREA 13.4700 AT TIME 19.0000 HOURS
 LINK VRPAUREA 13.9800 AT TIME 19.5000 HOURS
 LINK VRPAUREA 14.7400 AT TIME 20.0000 HOURS
 LINK VRPAUREA 15.3100 AT TIME 20.5000 HOURS
 LINK VRPAUREA 15.7100 AT TIME 21.0000 HOURS
 LINK VRPAUREA 16.3300 AT TIME 21.5000 HOURS
 LINK VRPAUREA 16.7800 AT TIME 22.0000 HOURS
 LINK VRPAUREA 17.1700 AT TIME 22.5000 HOURS
 LINK VRPAUREA 17.8200 AT TIME 23.0000 HOURS
 LINK VRPAUREA 18.2000 AT TIME 23.5000 HOURS

[QUALITY]

[SOURCES]

[MIXING]

[REACTIONS]
 ORDER  BULK            1.00
 ORDER  WALL            1
 ORDER  TANK            1.00
 GLOBAL BULK            0.000000
 GLOBAL WALL            0.000000

[ENERGY]
 GLOBAL EFFIC        75.0000
 DEMAND CHARGE       0.0000

[TIMES]
 DURATION            24:00:00
 HYDRAULIC TIMESTEP  0:30:00
 QUALITY TIMESTEP    0:05:00
 REPORT TIMESTEP     0:30:00
 REPORT START        0:00:00
 PATTERN TIMESTEP    1:00:00
 PATTERN START       0:00:00
 RULE TIMESTEP       0:03:00
 START CLOCKTIME     0:00:00
 STATISTIC           NONE

[OPTIONS]
 UNITS               LPS
 PRESSURE            METERS
 HEADLOSS            H-W
 PATTERN             1
 UNBALANCED          CONTINUE 10
 QUALITY             NONE
 DEMAND MULTIPLIER   1.0000
 EMITTER EXPONENT    0.5000
 VISCOSITY           1.000000
 DIFFUSIVITY         1.000000
 SPECIFIC GRAVITY    1.000000
 TRIALS              60
 ACCURACY            0.00100000
 TOLERANCE           0.01000000
 CHECKFREQ           10
 MAXCHECK            10
 DAMPLIMIT           0.00000000

[REPORT]
 PAGESIZE            0
 STATUS              NO
 SUMMARY             NO
 ENERGY              NO
 MESSAGES            YES
 NODES               NONE
 LINKS               NONE
 Elevation           NO
 Demand              PRECISION 2
 Head                PRECISION 2
 Pressure            PRECISION 2
 Quality             NO
 Length              NO
 Diameter            NO
 Flow                PRECISION 2
 Velocity            PRECISION 2
 Headloss            PRECISION 2
 Quality             NO
 State               NO
 Setting             NO
 Reaction            NO



[COORDINATES]
 264                              629845.340000 7509448.550000
 265                              629838.100000 7509450.900000
 340                              629842.060000 7509459.810000
 342                              629878.660000 7509539.450000
 343                              629916.500000 7509621.620000
 345                              629920.390000 7509628.890000
 351                              629964.620000 7509723.410000
 352                              630033.820000 7509486.190000
 353                              630065.340000 7509579.020000
 354                              629999.960000 7509811.180000
 355                              630097.770000 7509677.790000
 356                              630002.370000 7509394.980000
 357                              630009.170000 7509380.590000
 358                              629998.550000 7509331.520000
 361                              630153.680000 7509342.410000
 362                              630317.980000 7509287.550000
 363                              630698.560000 7509157.350000
 364                              630815.680000 7509115.310000
 365                              630967.710000 7509062.920000
 366                              631108.520000 7509014.050000
 367                              630508.920000 7509220.830000
 368                              630662.450000 7509168.030000
 369                              630658.690000 7509156.690000
 387                              630039.400000 7509888.480000
 388                              630062.450000 7509897.170000
 389                              630160.610000 7509864.170000
 390                              630128.050000 7509771.170000
 391                              630282.630000 7509718.440000
 392                              630249.860000 7509624.480000
 393                              630217.180000 7509527.490000
 394                              630184.030000 7509434.970000
 395                              630361.880000 7509478.490000
 396                              630309.720000 7509604.200000
 397                              630326.810000 7509646.660000
 398                              630385.910000 7509577.950000
 399                              630408.390000 7509675.060000
 400                              630415.870000 7509711.650000
 401                              630512.410000 7509638.540000
 402                              630548.710000 7509626.680000
 403                              630513.410000 7509539.690000
 405                              630614.480000 7509505.570000
 406                              630659.520000 7509486.740000
 407                              630639.040000 7509490.490000
 408                              630615.010000 7509499.580000
 409                              630563.470000 7509410.340000
 410                              630482.700000 7509436.690000
 411                              630564.720000 7509375.070000
 412                              630453.120000 7509342.570000
 413                              630511.540000 7509534.110000
 414                              630542.390000 7509311.880000
 415                              630594.890000 7509441.170000
 416                              630623.780000 7509394.050000
 417                              630631.770000 7509559.300000
 418                              630602.420000 7509188.820000
 419                              630837.290000 7509177.290000
 420                              630854.140000 7509230.120000
 421                              630882.570000 7509315.230000
 422                              630875.880000 7509317.800000
 423                              630873.190000 7509310.070000
 424                              630884.850000 7509342.580000
 425                              630766.540000 7509351.150000
 426                              630759.100000 7509342.210000
 427                              630713.240000 7509357.630000
 428                              630824.440000 7509532.050000
 429                              630830.520000 7509550.400000
 430                              630833.120000 7509563.240000
 431                              630856.180000 7509627.940000
 432                              630733.920000 7509564.200000
 433                              630763.530000 7509647.070000
 434                              630641.470000 7509595.300000
 435                              630659.770000 7509647.590000
 436                              630677.230000 7509477.200000
 437                              630704.330000 7509470.390000
 438                              630668.640000 7509377.760000
 439                              630640.380000 7509281.820000
 440                              630636.790000 7509282.110000
 441                              630422.980000 7509237.710000
 442                              630409.270000 7509192.010000
 443                              630397.220000 7509154.180000
 444                              630292.400000 7509282.900000
 445                              630278.030000 7509236.910000
 446                              630141.940000 7509334.670000
 447                              630126.670000 7509287.290000
 448                              630016.960000 7509296.860000
 449                              630337.580000 7509381.990000
 450                              630216.640000 7509520.800000
 453                              630359.990000 7509471.700000
 454                              630425.240000 7509249.530000
 404                              630295.510000 7509293.520000
 456                              630711.680000 7509629.920000
 457                              630718.230000 7509255.060000
 458                              630907.830000 7509401.450000
 459                              630727.030000 7509245.520000
 460                              630755.020000 7509237.290000
 461                              630974.710000 7509282.350000
 462                              630937.740000 7509494.350000
 463                              631061.280000 7509345.310000
 464                              631071.520000 7509448.190000
 465                              630967.240000 7509592.600000
 466                              630984.790000 7509644.760000
 467                              630645.860000 7509116.150000
 468                              630639.380000 7509097.820000
 469                              630551.870000 7509146.760000
 470                              630796.770000 7509113.570000
 471                              630855.690000 7509025.460000
 472                              630883.030000 7508986.730000
 473                              631014.250000 7509156.640000
 474                              631050.700000 7509247.300000
 475                              631183.670000 7509092.700000
 476                              631247.000000 7509176.330000
 337                              629834.140000 7509424.030000
 386                              630796.350000 7509442.520000
 451                              629781.710000 7509533.040000
 555                              629816.310000 7509558.980000
 739                              629904.810000 7509634.810000
 946                              629858.200000 7509688.550000
 947                              629935.290000 7509760.920000
 1058                             629769.410000 7509613.390000
 1073                             629737.540000 7509648.590000
 1077                             629714.770000 7509679.750000
 1078                             629786.960000 7509753.990000
 1152                             629900.090000 7509729.050000
 168                              631262.380000 7508792.690000
 2                                630953.640000 7509544.070000
 3                                630326.710000 7509330.120000
 4                                629834.480000 7509413.680000
 5                                629862.160000 7509766.890000
 1                                629837.430000 7509407.370000

[TAGS]

[VERTICES]
;Link            	X-Coord         	Y-Coord
 580             	630622.49       	7509393.18      

[LABELS]
;X-Coord           Y-Coord          Label & Anchor Node
 630330.11        7509329.28       "PTO MONITORADO"                 
 630961.81        7509536.31       "PONTO MONITORADO"                 

[BACKDROP]
 DIMENSIONS     	629394.39       	7504529.67      	633853.97       	7510152.77      
 UNITS          	None
 FILE           	
 OFFSET         	0.00            	0.00            


[END]