  Page 1                                    Tue Jan 16 11:38:23 2018

  ******************************************************************
  *                           E P A N E T                          *
  *                   Hydraulic and Water Quality                  *
  *                   Analysis for Pipe Networks                   *
  *                         Version 2.1                            *
  ******************************************************************
  
  Analysis begun Tue Jan 16 11:38:23 2018

  Analysis ended Tue Jan 16 11:38:23 2018
